{
    "_cId": "5801391c57551ae514d18de39a07aa9b",
    "links": [
        {
            "href": "https://an-appian-instance.host.net/suite/rest/a/sites/latest/D6JMim/pages/reports/report/5XXa-A/reportlink",
            "rel": "update",
            "title": "Update"
        },
        {
            "href": "https://an-appian-instance.host.net/suite/rest/a/sites/latest/D6JMim/pages/reports/report/5XXa-A/reportlink",
            "rel": "self",
            "method": "POST"
        }
    ],
    "triggers": [],
    "ui": {
        "_cId": "e9dbbc4867856e45ca29c7dc3bd3d1c4",
        "_dirty": "false",
        "contents": [
            {
                "_cId": "9b1167443e59a2e6ea4dc3987ccae0f3",
                "label": "",
                "labelPosition": "COLLAPSED",
                "instructions": "",
                "value": {
                    "_cId": "a0b62278219883fb7ca59b9242827f0a",
                    "values": [
                        {
                            "values": [
                                {
                                    "#v": "SUI_L_ChartsReport",
                                    "#t": "string"
                                }
                            ],
                            "#t": "TitleText"
                        }
                    ],
                    "#t": "FormattedText"
                },
                "valueAlignment": "",
                "helpTooltip": "",
                "accessibilityText": "",
                "preventWrapping": false,
                "tooltip": "",
                "marginAbove": "",
                "marginBelow": "",
                "#t": "RichTextDisplayField"
            },
            {
                "_cId": "55c22c42967c1c8e13560c4f916c101b",
                "columns": [
                    {
                        "_cId": "f925ad73a56b599f008531af5e510721",
                        "contents": [
                            {
                                "isCollapsible": "false",
                                "isInitiallyCollapsed": "false",
                                "_cId": "d6c67e5120dfc63e33db5b7d6efa738e",
                                "collapseLabel": "Hide section contents",
                                "contents": [
                                    {
                                        "_cId": "4b6bcc3c19decec887a7bf9b74db2fc6",
                                        "columns": [
                                            {
                                                "_cId": "c4d749024c93b6cb39549e3ccbe889bc",
                                                "contents": [
                                                    {
                                                        "_cId": "52e07b55c4d4f60ca8b54192f89692f2",
                                                        "isGridField": "true",
                                                        "contents": {
                                                            "_cId": "fa1b156cb1d3a29dba15e88ed9b582c9",
                                                            "contents": [
                                                                {
                                                                    "_cId": "78c4d94d835e76a384edc8ab1ad66ba1",
                                                                    "contents": [
                                                                        {
                                                                            "#v": "",
                                                                            "#t": "string"
                                                                        },
                                                                        {
                                                                            "_cId": "6baffdf6038256e29ec58ccac4c4be61",
                                                                            "contents": {
                                                                                "_cId": "b10e9c218ec1e1abc996a8e0be8593e6",
                                                                                "label": "",
                                                                                "labelPosition": "",
                                                                                "instructions": "",
                                                                                "helpTooltip": "",
                                                                                "validations": [],
                                                                                "items": [
                                                                                    {
                                                                                        "_cId": "9e5dbd355a49ad0fd29fe85527953a0c",
                                                                                        "item": {
                                                                                            "_cId": "b853c25ff81ad38f873b73480c92606a",
                                                                                            "contents": [
                                                                                                {
                                                                                                    "_cId": "2d6962ee6ba26756250fc2602408bc7b",
                                                                                                    "align": "",
                                                                                                    "itemGap": 10,
                                                                                                    "itemMaxWidth": 510,
                                                                                                    "itemMinWidth": 245,
                                                                                                    "items": [
                                                                                                        {
                                                                                                            "_cId": "159cb4236e86828fbecdad511e4349ba",
                                                                                                            "item": {
                                                                                                                "_cId": "7fa84bd868dccfcde286eb1740e4c88a",
                                                                                                                "testLabel": "Employees-recordSearchBox",
                                                                                                                "value": "",
                                                                                                                "placeholder": "Search Employees",
                                                                                                                "searchButtonLabel": "Search",
                                                                                                                "clearIconLabel": "Clear value for Search Employees",
                                                                                                                "saveInto": [
                                                                                                                    "<<jA0EAwMCVcH7caGVQ90B0rkBM2DIm67vff04Pmm1wFBpgY/apAJton9qTaKrYL9cMm/yoVR+FdEt\r\nMql4FeYvQt1XomP+BrjY8hBflDsFSiAQ0hCQUyql7UMJxJhaF1UotBARiqqdhEwRXSbOIkTS+Dvz\r\niGTiKdUT6Vl3OBQqcBZMZbBIhLXUB6xnVWj5YttX0CSxnQyJj1iPJ5qFQY532OF+MLxbDg9NvYbE\r\narCf4EX8wkkoQyTnF+DFUoM1e0SADXoXAx4QychPwg==\r\n>>"
                                                                                                                ],
                                                                                                                "actions": [
                                                                                                                    {
                                                                                                                        "_cId": "12edefe08f91e0d35a5b22fe8d3b93d0",
                                                                                                                        "testLabel": "Employees-searchLink",
                                                                                                                        "_actionName": "onSearch",
                                                                                                                        "label": "",
                                                                                                                        "saveInto": [
                                                                                                                            "<<jA0EAwMCVcH7caGVQ90B0r0BM2DIm67vff04Pmm1wFBpgY/apAJton9qTaKrRr9YMm9IHcH3WPv3\r\nUf1p7J8EieZSRAAoMQh63mfmNx/abXvWrviAaI4k9JdAdDXiHnUDyxe1UfM1IwjwW33na/mayDQp\r\nQbXlMIDD+tv7/UDeRFvJZd0ZSXAPf6WhJx7VYocptvxxcAsrgeIjxYVSWTGP9nKi3tSENQT8LxOM\r\nz52K4vExFeKnbQycA3Bj7aEZSdgqdrGRv/Tj6tqyFlx2ATU=\r\n>>"
                                                                                                                        ],
                                                                                                                        "tooltip": "",
                                                                                                                        "href": "",
                                                                                                                        "#t": "DynamicLink"
                                                                                                                    }
                                                                                                                ],
                                                                                                                "#t": "SearchBoxWidget"
                                                                                                            }
                                                                                                        }
                                                                                                    ],
                                                                                                    "#t": "DynamicWidthLayout"
                                                                                                }
                                                                                            ],
                                                                                            "padding": "NONE",
                                                                                            "topLevelBackgroundColor": "",
                                                                                            "#t": "ContentLayout"
                                                                                        },
                                                                                        "width": ""
                                                                                    },
                                                                                    {
                                                                                        "_cId": "774d36fa656ee9f5333fd50d4534e8dd",
                                                                                        "item": {
                                                                                            "_cId": "702ab52e85adfd50b0346a8ea01653d3",
                                                                                            "contents": [
                                                                                                {
                                                                                                    "_cId": "8fe484f92f5cc1a4c2811cdebc236956",
                                                                                                    "testLabel": "Employees-Favorite User Filter Options",
                                                                                                    "headerImageUrl": "",
                                                                                                    "headerText": "",
                                                                                                    "icon": "FILTER",
                                                                                                    "style": "SECONDARY",
                                                                                                    "size": "SMALL",
                                                                                                    "tooltip": "Manage filters",
                                                                                                    "ariaLabel": "",
                                                                                                    "contents": [
                                                                                                        {
                                                                                                            "_cId": "8278e2f575874ab0fe5c7c19a3cedb35",
                                                                                                            "testLabel": "Employees-Clear Filters Menu",
                                                                                                            "primaryText": "Clear filters",
                                                                                                            "secondaryText": "",
                                                                                                            "tooltip": "",
                                                                                                            "icon": {
                                                                                                                "#v": "CLEAR-FILTER",
                                                                                                                "#t": "string"
                                                                                                            },
                                                                                                            "link": {
                                                                                                                "_cId": "1f61a560e9cb7b0470b0eaf28b1a56d7",
                                                                                                                "label": "Employees-Clear Filters Option",
                                                                                                                "value": {
                                                                                                                    "#v": "",
                                                                                                                    "#t": "string"
                                                                                                                },
                                                                                                                "saveInto": [
                                                                                                                    "<<jA0EAwMCVcH7caGVQ90B0sAHATNgyJuu7339OD5ptcBQaYGP2qQCbaJ/ak2iq0biXDJviBuVnXak\r\n4GQWH2oRaufNOqHLxuQHEGBzmv9BXC76JoMOFVFSA/DQ4f0mG9vt9dB6oUIsCzYXrOfcm5GSGHJq\r\n93Ap7xS0FIGSEIGI0Mnwdz2bIZijVr4FCYKKnQwDAzsoV8XUJYOgqhuQRVeE57EBT1Xr5lK4+bHq\r\n6D35h7gUxEJ7Tk4VuT8NCxzBFBsIKSX+RqN7h69C6da4Uf1aeTFxd0SNzEXdYQ==\r\n>>"
                                                                                                                ],
                                                                                                                "tooltip": "",
                                                                                                                "href": "",
                                                                                                                "#t": "DynamicLink"
                                                                                                            },
                                                                                                            "disabled": true,
                                                                                                            "disabledHelpText": "",
                                                                                                            "#t": "MenuItem"
                                                                                                        },
                                                                                                        {
                                                                                                            "_cId": "b67477aaa03d76391fb8488c9ea29bdd",
                                                                                                            "style": "STANDARD",
                                                                                                            "#t": "MenuDivider"
                                                                                                        },
                                                                                                        {
                                                                                                            "_cId": "d28420e8904b81bac9549b51b0473e28",
                                                                                                            "testLabel": "Employees-Save Filters Menu",
                                                                                                            "primaryText": "Save filters as...",
                                                                                                            "secondaryText": "",
                                                                                                            "tooltip": "",
                                                                                                            "icon": {
                                                                                                                "#v": "floppy-o",
                                                                                                                "#t": "string"
                                                                                                            },
                                                                                                            "link": {
                                                                                                                "_cId": "83695a4aedab1b0984920eba5ea58877",
                                                                                                                "testLabel": "Employees-saveFavoriteFilter",
                                                                                                                "label": "",
                                                                                                                "value": {
                                                                                                                    "#v": "",
                                                                                                                    "#t": "string"
                                                                                                                },
                                                                                                                "saveInto": [
                                                                                                                    "<<jA0EAwMCVcH7caGVQ90B0sALATNgyJuu7339OD5ptcBQaYGP2qQCbaJ/akyhq0a6XzJ/9mE+tvP4\r\naKxBzZ5SoIGviR+Om0BoHP21OFbOopxbmXbteTEBhkz0V/lioriCLf7zW7VNWUx2rzcpZWeRIiMC\r\nAJLZmmipOw58jbfnmlhrWwO6jesPK//zK9nyHMlYfvpKefHHRay4W7qmbm6urKsz1yUT2JNwqFRv\r\nx3UDd802WfB0TxcT+Nr54glkFOToLIZmrVtUdZw3L7iq/tvBKlP6E/MSIbpPAnNgwpo=\r\n>>"
                                                                                                                ],
                                                                                                                "tooltip": "",
                                                                                                                "href": "",
                                                                                                                "#t": "DynamicLink"
                                                                                                            },
                                                                                                            "disabled": false,
                                                                                                            "disabledHelpText": "",
                                                                                                            "#t": "MenuItem"
                                                                                                        }
                                                                                                    ],
                                                                                                    "hasPulldown": true,
                                                                                                    "menuAlignment": "START",
                                                                                                    "buttonSkinName": "",
                                                                                                    "tooltipStyle": "SUBTLE",
                                                                                                    "menuHeight": "AUTO",
                                                                                                    "#t": "MenuLayout"
                                                                                                },
                                                                                                {
                                                                                                    "_cId": "b2a3c088b6ece15322ba6c16cdaf8eed",
                                                                                                    "isFlat": "false",
                                                                                                    "tooltip": "Refresh",
                                                                                                    "enableRecaptcha": "false",
                                                                                                    "testLabel": "gridField_recordData_refreshButton",
                                                                                                    "label": "",
                                                                                                    "style": "",
                                                                                                    "confirmHeader": "",
                                                                                                    "confirmMessage": "",
                                                                                                    "confirmButtonLabel": "",
                                                                                                    "confirmButtonStyle": "PRIMARY",
                                                                                                    "cancelButtonLabel": "",
                                                                                                    "value": {
                                                                                                        "#v": "",
                                                                                                        "#t": "string"
                                                                                                    },
                                                                                                    "saveInto": [
                                                                                                        "<<jA0EAwMCVcH7caGVQ90B0rEBM2DIm67vff04Pmm1wFBpgY/apAJton9qTaWrYOJcMm8D6U06epVT\r\nnfvvorcSpUVg78rKY+zx9+oOlBjxu871H7K2gpre61vPuTGccJBvcDfjId2IMEbSE/2/ZOQuOuqP\r\nSezJ6jvhagNeimKBS1gDdRt3LoLjeW+CYLShL9svDDI8wT2hpaQkidf7ESEvDHI/5ZUrmR+libyK\r\nsg1jbDEKJpmQYZ3cfjDr6ETHcPhEMJs=\r\n>>"
                                                                                                    ],
                                                                                                    "size": "SMALL",
                                                                                                    "icon": "REFRESH",
                                                                                                    "buttonStyle": "SECONDARY",
                                                                                                    "ariaLabel": "",
                                                                                                    "skinName": "",
                                                                                                    "tooltipStyle": "SUBTLE",
                                                                                                    "tooltipVerticalPosition": "",
                                                                                                    "tooltipWidth": "",
                                                                                                    "accessibilityText": "",
                                                                                                    "shape": "",
                                                                                                    "width": "",
                                                                                                    "#t": "ButtonWidget"
                                                                                                }
                                                                                            ],
                                                                                            "align": "END",
                                                                                            "marginBelow": "NONE",
                                                                                            "accessibilityText": "",
                                                                                            "marginAbove": "",
                                                                                            "#t": "ButtonLayout2"
                                                                                        },
                                                                                        "width": "MINIMIZE"
                                                                                    }
                                                                                ],
                                                                                "spacing": "",
                                                                                "alignVertical": "TOP",
                                                                                "#t": "SideBySideGroup"
                                                                            },
                                                                            "label": "",
                                                                            "labelPosition": "COLLAPSED",
                                                                            "instructions": "",
                                                                            "instructionsPosition": "",
                                                                            "helpTooltip": "",
                                                                            "requiredStyle": "",
                                                                            "skinName": "",
                                                                            "marginBelow": "NONE",
                                                                            "accessibilityText": "",
                                                                            "marginAbove": "",
                                                                            "#t": "FieldLayout"
                                                                        },
                                                                        {
                                                                            "_cId": "c9361366199f264a7dbda9449099a560",
                                                                            "contents": [],
                                                                            "padding": "NONE",
                                                                            "topLevelBackgroundColor": "",
                                                                            "#t": "ContentLayout"
                                                                        }
                                                                    ],
                                                                    "padding": "NONE",
                                                                    "topLevelBackgroundColor": "",
                                                                    "#t": "ContentLayout"
                                                                },
                                                                {
                                                                    "_cId": "ec5e4280b7764457f75fd818e9c863f7",
                                                                    "testLabel": "PagingGrid-Employees",
                                                                    "hasNoValue": "true",
                                                                    "requiredMessage": "At least one item must be selected",
                                                                    "disabled": false,
                                                                    "readOnly": true,
                                                                    "value": {
                                                                        "selected": [],
                                                                        "pagingInfo": {
                                                                            "startIndex": 1,
                                                                            "batchSize": 10,
                                                                            "sort": [
                                                                                {
                                                                                    "field": "#\"urn:appian:record-field:v1:2095abdb-6b2b-47ac-9c4e-d6b84a9469a8/8e43d3ac-33af-4e2d-b449-f9093c51b2d0\"",
                                                                                    "ascending": true
                                                                                }
                                                                            ]
                                                                        },
                                                                        "#t": "GridSelection"
                                                                    },
                                                                    "saveInto": [
                                                                        "<<jA0EAwMCVcH7caGVQ90B0rEBM2DIm67vff04Pmm1wFBpgY/apAJton9qTaKrYL9YMm/rw1LXyoIm\r\n/H1jG5FfBahlqEva8LxEHSXbfXEGBFwe3YENyTymVdEjMKbr0E5vAZphyUY+dj+ZJ+5IUnS83hHL\r\n30iKcpwubda12E/Yi+wH/QmkcU5p2d2VheAexw3NPyCam0AOSiD9HePfbhai/+jCnaIg1c5LwIPr\r\njwiYnEJqdcpuwLHzWK/XCKoyvO4X1I0=\r\n>>"
                                                                    ],
                                                                    "columns": [
                                                                        {
                                                                            "_cId": "5f49c5729be967e460d9377deffe347a",
                                                                            "label": "First Name",
                                                                            "field": "#\"urn:appian:record-field:v1:2095abdb-6b2b-47ac-9c4e-d6b84a9469a8/acfd3a85-9d39-46b2-bf3f-2783d75acc4b\"",
                                                                            "align": "",
                                                                            "width": "",
                                                                            "data": [
                                                                                {
                                                                                    "_cId": "0b62a2cbde01c60558c37ff71fb2c1eb",
                                                                                    "label": "",
                                                                                    "instructions": "",
                                                                                    "links": [
                                                                                        {
                                                                                            "_cId": "1ec109b47cade28e38a80558d9b03f28",
                                                                                            "uuid": "2095abdb-6b2b-47ac-9c4e-d6b84a9469a8",
                                                                                            "siteUrlStub": "D6JMim",
                                                                                            "pageUrlStub": "reports",
                                                                                            "recordIdentifier": "1",
                                                                                            "_recordRef": "lEBdU0m6VI4BH49o-Yc7iQmrwTbYGPQL4DUCwLlHSw9CLlaov2_bNKbE5PPL6xtDthQe5noPEmNY1ESYBYmvLTMJF8uCEvAJEOJVdj1GosvSSc",
                                                                                            "recordRef": {
                                                                                                "id": "3#{http://www.appian.com/ae/types/2009}Integer#1",
                                                                                                "#t": "RecordReference"
                                                                                            },
                                                                                            "dashboard": "",
                                                                                            "label": "John",
                                                                                            "tooltip": "",
                                                                                            "openLinkIn": "",
                                                                                            "#t": "RecordLink"
                                                                                        }
                                                                                    ],
                                                                                    "labelPosition": "ABOVE",
                                                                                    "align": "DEFAULT",
                                                                                    "helpTooltip": "",
                                                                                    "accessibilityText": "",
                                                                                    "#t": "AnyLinkField"
                                                                                },
                                                                                {
                                                                                    "_cId": "035596a3221f1cc54b03644d2f1d51a8",
                                                                                    "label": "",
                                                                                    "instructions": "",
                                                                                    "links": [
                                                                                        {
                                                                                            "_cId": "ccb26f420476d24abf3544ea5d6d378b",
                                                                                            "uuid": "2095abdb-6b2b-47ac-9c4e-d6b84a9469a8",
                                                                                            "siteUrlStub": "D6JMim",
                                                                                            "pageUrlStub": "reports",
                                                                                            "recordIdentifier": "2",
                                                                                            "_recordRef": "lEBdU0m6VI4BH49o-Yc7iQmrwTbYGPQL4DUCwLlHSw9CLlaov2_bNKbE5PPL6xtDthQe5noPEmNY1ESYxYm-ykMPZ7ZNpImJ22ixZSRd3E1iFQ",
                                                                                            "recordRef": {
                                                                                                "id": "3#{http://www.appian.com/ae/types/2009}Integer#2",
                                                                                                "#t": "RecordReference"
                                                                                            },
                                                                                            "dashboard": "",
                                                                                            "label": "Michael",
                                                                                            "tooltip": "",
                                                                                            "openLinkIn": "",
                                                                                            "#t": "RecordLink"
                                                                                        }
                                                                                    ],
                                                                                    "labelPosition": "ABOVE",
                                                                                    "align": "DEFAULT",
                                                                                    "helpTooltip": "",
                                                                                    "accessibilityText": "",
                                                                                    "#t": "AnyLinkField"
                                                                                },
                                                                                {
                                                                                    "_cId": "f6f86f267dfa02a14c7099168f4259cd",
                                                                                    "label": "",
                                                                                    "instructions": "",
                                                                                    "links": [
                                                                                        {
                                                                                            "_cId": "d4750e3378fb6fc0591130f315ba2f08",
                                                                                            "uuid": "2095abdb-6b2b-47ac-9c4e-d6b84a9469a8",
                                                                                            "siteUrlStub": "D6JMim",
                                                                                            "pageUrlStub": "reports",
                                                                                            "recordIdentifier": "3",
                                                                                            "_recordRef": "lEBdU0m6VI4BH49o-Yc7iQmrwTbYGPQL4DUCwLlHSw9CLlaov2_bNKbE5PPL6xtDthQe5noPEmNY1ESYhYmQJ2TQJM7rGr9jnf_2WwvHx2fzcE",
                                                                                            "recordRef": {
                                                                                                "id": "3#{http://www.appian.com/ae/types/2009}Integer#3",
                                                                                                "#t": "RecordReference"
                                                                                            },
                                                                                            "dashboard": "",
                                                                                            "label": "Elizabeth",
                                                                                            "tooltip": "",
                                                                                            "openLinkIn": "",
                                                                                            "#t": "RecordLink"
                                                                                        }
                                                                                    ],
                                                                                    "labelPosition": "ABOVE",
                                                                                    "align": "DEFAULT",
                                                                                    "helpTooltip": "",
                                                                                    "accessibilityText": "",
                                                                                    "#t": "AnyLinkField"
                                                                                },
                                                                                {
                                                                                    "_cId": "5f1d2f2f3b3cf49617226226060b4438",
                                                                                    "label": "",
                                                                                    "instructions": "",
                                                                                    "links": [
                                                                                        {
                                                                                            "_cId": "0dfaf808dd83e62074c80c5d135c4bf2",
                                                                                            "uuid": "2095abdb-6b2b-47ac-9c4e-d6b84a9469a8",
                                                                                            "siteUrlStub": "D6JMim",
                                                                                            "pageUrlStub": "reports",
                                                                                            "recordIdentifier": "4",
                                                                                            "_recordRef": "lEBdU0m6VI4BH49o-Yc7iQmrwTbYGPQL4DUCwLlHSw9CLlaov2_bNKbE5PPL6xtDthQe5noPEmNY1ESZRYmsObdJAYwRdi0Bv8mVQ50whvMqgg",
                                                                                            "recordRef": {
                                                                                                "id": "3#{http://www.appian.com/ae/types/2009}Integer#4",
                                                                                                "#t": "RecordReference"
                                                                                            },
                                                                                            "dashboard": "",
                                                                                            "label": "Rachel",
                                                                                            "tooltip": "",
                                                                                            "openLinkIn": "",
                                                                                            "#t": "RecordLink"
                                                                                        }
                                                                                    ],
                                                                                    "labelPosition": "ABOVE",
                                                                                    "align": "DEFAULT",
                                                                                    "helpTooltip": "",
                                                                                    "accessibilityText": "",
                                                                                    "#t": "AnyLinkField"
                                                                                },
                                                                                {
                                                                                    "_cId": "76a689f86e7b52eb49193e938b408e30",
                                                                                    "label": "",
                                                                                    "instructions": "",
                                                                                    "links": [
                                                                                        {
                                                                                            "_cId": "7f13538113c3729b98383c250aa9d167",
                                                                                            "uuid": "2095abdb-6b2b-47ac-9c4e-d6b84a9469a8",
                                                                                            "siteUrlStub": "D6JMim",
                                                                                            "pageUrlStub": "reports",
                                                                                            "recordIdentifier": "5",
                                                                                            "_recordRef": "lEBdU0m6VI4BH49o-Yc7iQmrwTbYGPQL4DUCwLlHSw9CLlaov2_bNKbE5PPL6xtDthQe5noPEmNY1ESZBYmQD0Lg5rySk4yVaztVQpSYYA2ew0",
                                                                                            "recordRef": {
                                                                                                "id": "3#{http://www.appian.com/ae/types/2009}Integer#5",
                                                                                                "#t": "RecordReference"
                                                                                            },
                                                                                            "dashboard": "",
                                                                                            "label": "Alison",
                                                                                            "tooltip": "",
                                                                                            "openLinkIn": "",
                                                                                            "#t": "RecordLink"
                                                                                        }
                                                                                    ],
                                                                                    "labelPosition": "ABOVE",
                                                                                    "align": "DEFAULT",
                                                                                    "helpTooltip": "",
                                                                                    "accessibilityText": "",
                                                                                    "#t": "AnyLinkField"
                                                                                },
                                                                                {
                                                                                    "_cId": "e22180602fd1e562f7c22c3e51038702",
                                                                                    "label": "",
                                                                                    "instructions": "",
                                                                                    "links": [
                                                                                        {
                                                                                            "_cId": "485b3d049a46a3d10d66b0560b35723c",
                                                                                            "uuid": "2095abdb-6b2b-47ac-9c4e-d6b84a9469a8",
                                                                                            "siteUrlStub": "D6JMim",
                                                                                            "pageUrlStub": "reports",
                                                                                            "recordIdentifier": "6",
                                                                                            "_recordRef": "lEBdU0m6VI4BH49o-Yc7iQmrwTbYGPQL4DUCwLlHSw9CLlaov2_bNKbE5PPL6xtDthQe5noPEmNY1ESZxYmHJqTpCEXKBjQGAl20BmWsmfGxyY",
                                                                                            "recordRef": {
                                                                                                "id": "3#{http://www.appian.com/ae/types/2009}Integer#6",
                                                                                                "#t": "RecordReference"
                                                                                            },
                                                                                            "dashboard": "",
                                                                                            "label": "Jupiter",
                                                                                            "tooltip": "",
                                                                                            "openLinkIn": "",
                                                                                            "#t": "RecordLink"
                                                                                        }
                                                                                    ],
                                                                                    "labelPosition": "ABOVE",
                                                                                    "align": "DEFAULT",
                                                                                    "helpTooltip": "",
                                                                                    "accessibilityText": "",
                                                                                    "#t": "AnyLinkField"
                                                                                },
                                                                                {
                                                                                    "_cId": "4f1c3d7f1c9ba9a470b5ed018d5604be",
                                                                                    "label": "",
                                                                                    "instructions": "",
                                                                                    "links": [
                                                                                        {
                                                                                            "_cId": "4d8f3a1715b6390e4cc968a01999c492",
                                                                                            "uuid": "2095abdb-6b2b-47ac-9c4e-d6b84a9469a8",
                                                                                            "siteUrlStub": "D6JMim",
                                                                                            "pageUrlStub": "reports",
                                                                                            "recordIdentifier": "7",
                                                                                            "_recordRef": "lEBdU0m6VI4BH49o-Yc7iQmrwTbYGPQL4DUCwLlHSw9CLlaov2_bNKbE5PPL6xtDthQe5noPEmNY1ESZhYmScB4vzuh1bPegU5Nca5lhyRRhJA",
                                                                                            "recordRef": {
                                                                                                "id": "3#{http://www.appian.com/ae/types/2009}Integer#7",
                                                                                                "#t": "RecordReference"
                                                                                            },
                                                                                            "dashboard": "",
                                                                                            "label": "Tim",
                                                                                            "tooltip": "",
                                                                                            "openLinkIn": "",
                                                                                            "#t": "RecordLink"
                                                                                        }
                                                                                    ],
                                                                                    "labelPosition": "ABOVE",
                                                                                    "align": "DEFAULT",
                                                                                    "helpTooltip": "",
                                                                                    "accessibilityText": "",
                                                                                    "#t": "AnyLinkField"
                                                                                },
                                                                                {
                                                                                    "_cId": "ae6e6f01506239368dc7af9852551183",
                                                                                    "label": "",
                                                                                    "instructions": "",
                                                                                    "links": [
                                                                                        {
                                                                                            "_cId": "11a3962af6cc77e42754f7d34515a136",
                                                                                            "uuid": "2095abdb-6b2b-47ac-9c4e-d6b84a9469a8",
                                                                                            "siteUrlStub": "D6JMim",
                                                                                            "pageUrlStub": "reports",
                                                                                            "recordIdentifier": "8",
                                                                                            "_recordRef": "lEBdU0m6VI4BH49o-Yc7iQmrwTbYGPQL4DUCwLlHSw9CLlaov2_bNKbE5PPL6xtDthQe5noPEmNY1ESaRYmk9akoMOEG3egKMUTRcMnFhn3CXc",
                                                                                            "recordRef": {
                                                                                                "id": "3#{http://www.appian.com/ae/types/2009}Integer#8",
                                                                                                "#t": "RecordReference"
                                                                                            },
                                                                                            "dashboard": "",
                                                                                            "label": "Abdul",
                                                                                            "tooltip": "",
                                                                                            "openLinkIn": "",
                                                                                            "#t": "RecordLink"
                                                                                        }
                                                                                    ],
                                                                                    "labelPosition": "ABOVE",
                                                                                    "align": "DEFAULT",
                                                                                    "helpTooltip": "",
                                                                                    "accessibilityText": "",
                                                                                    "#t": "AnyLinkField"
                                                                                },
                                                                                {
                                                                                    "_cId": "8cf8c176d29a9c8132d5d22ac1714bcf",
                                                                                    "label": "",
                                                                                    "instructions": "",
                                                                                    "links": [
                                                                                        {
                                                                                            "_cId": "082074f38f2afd3cbd0c32df3cd8048b",
                                                                                            "uuid": "2095abdb-6b2b-47ac-9c4e-d6b84a9469a8",
                                                                                            "siteUrlStub": "D6JMim",
                                                                                            "pageUrlStub": "reports",
                                                                                            "recordIdentifier": "9",
                                                                                            "_recordRef": "lEBdU0m6VI4BH49o-Yc7iQmrwTbYGPQL4DUCwLlHSw9CLlaov2_bNKbE5PPL6xtDthQe5noPEmNY1ESaBYmAJvr04-sc3F2LGgGpNCMib_tIus",
                                                                                            "recordRef": {
                                                                                                "id": "3#{http://www.appian.com/ae/types/2009}Integer#9",
                                                                                                "#t": "RecordReference"
                                                                                            },
                                                                                            "dashboard": "",
                                                                                            "label": "Jane",
                                                                                            "tooltip": "",
                                                                                            "openLinkIn": "",
                                                                                            "#t": "RecordLink"
                                                                                        }
                                                                                    ],
                                                                                    "labelPosition": "ABOVE",
                                                                                    "align": "DEFAULT",
                                                                                    "helpTooltip": "",
                                                                                    "accessibilityText": "",
                                                                                    "#t": "AnyLinkField"
                                                                                },
                                                                                {
                                                                                    "_cId": "f41a4c259bc7ce8f2ea91eb8035c632b",
                                                                                    "label": "",
                                                                                    "instructions": "",
                                                                                    "links": [
                                                                                        {
                                                                                            "_cId": "b317701c9f9bb26f0a96da5f9324d871",
                                                                                            "uuid": "2095abdb-6b2b-47ac-9c4e-d6b84a9469a8",
                                                                                            "siteUrlStub": "D6JMim",
                                                                                            "pageUrlStub": "reports",
                                                                                            "recordIdentifier": "10",
                                                                                            "_recordRef": "lIBdU0m6VI4BH49o-Yc7iQmrwTbYGPQL4DUCwLlHSw9CLlaov2_bNKbE5PPL6xtDthQe5noPEmNY1ESYPXh4OhXK1Y955UK2o9wzCN1qhECzrB8",
                                                                                            "recordRef": {
                                                                                                "id": "3#{http://www.appian.com/ae/types/2009}Integer#10",
                                                                                                "#t": "RecordReference"
                                                                                            },
                                                                                            "dashboard": "",
                                                                                            "label": "John",
                                                                                            "tooltip": "",
                                                                                            "openLinkIn": "",
                                                                                            "#t": "RecordLink"
                                                                                        }
                                                                                    ],
                                                                                    "labelPosition": "ABOVE",
                                                                                    "align": "DEFAULT",
                                                                                    "helpTooltip": "",
                                                                                    "accessibilityText": "",
                                                                                    "#t": "AnyLinkField"
                                                                                }
                                                                            ],
                                                                            "helpTooltip": "",
                                                                            "secondaryText": "",
                                                                            "#t": "GridFieldColumn"
                                                                        },
                                                                        {
                                                                            "_cId": "b4f5c4e0cbb635b4bd71202e04a97be3",
                                                                            "label": "Last Name",
                                                                            "field": "#\"urn:appian:record-field:v1:2095abdb-6b2b-47ac-9c4e-d6b84a9469a8/e7e484a9-82b6-4fc8-830f-5557ef563c8c\"",
                                                                            "align": "",
                                                                            "width": "",
                                                                            "data": [
                                                                                {
                                                                                    "#v": "Smith",
                                                                                    "#t": "string"
                                                                                },
                                                                                {
                                                                                    "#v": "Johnson",
                                                                                    "#t": "string"
                                                                                },
                                                                                {
                                                                                    "#v": "Ward",
                                                                                    "#t": "string"
                                                                                },
                                                                                {
                                                                                    "#v": "Rater",
                                                                                    "#t": "string"
                                                                                },
                                                                                {
                                                                                    "#v": "Cowley",
                                                                                    "#t": "string"
                                                                                },
                                                                                {
                                                                                    "#v": "Munoz",
                                                                                    "#t": "string"
                                                                                },
                                                                                {
                                                                                    "#v": "Caroll",
                                                                                    "#t": "string"
                                                                                },
                                                                                {
                                                                                    "#v": "Sowayan",
                                                                                    "#t": "string"
                                                                                },
                                                                                {
                                                                                    "#v": "Hill",
                                                                                    "#t": "string"
                                                                                },
                                                                                {
                                                                                    "#v": "Rodgers",
                                                                                    "#t": "string"
                                                                                }
                                                                            ],
                                                                            "helpTooltip": "",
                                                                            "secondaryText": "",
                                                                            "#t": "GridFieldColumn"
                                                                        },
                                                                        {
                                                                            "_cId": "00a4892395af20729ded879645e934cf",
                                                                            "label": "Department",
                                                                            "field": "#\"urn:appian:record-field:v1:2095abdb-6b2b-47ac-9c4e-d6b84a9469a8/03ca49af-4424-4b99-bb73-29db9d2f593a\"",
                                                                            "align": "",
                                                                            "width": "",
                                                                            "data": [
                                                                                {
                                                                                    "#v": "IT",
                                                                                    "#t": "string"
                                                                                },
                                                                                {
                                                                                    "#v": "HR",
                                                                                    "#t": "string"
                                                                                },
                                                                                {
                                                                                    "#v": "SALES",
                                                                                    "#t": "string"
                                                                                },
                                                                                {
                                                                                    "#v": "MARKETING",
                                                                                    "#t": "string"
                                                                                },
                                                                                {
                                                                                    "#v": "SALES",
                                                                                    "#t": "string"
                                                                                },
                                                                                {
                                                                                    "#v": "HR",
                                                                                    "#t": "string"
                                                                                },
                                                                                {
                                                                                    "#v": "SALES",
                                                                                    "#t": "string"
                                                                                },
                                                                                {
                                                                                    "#v": "IT",
                                                                                    "#t": "string"
                                                                                },
                                                                                {
                                                                                    "#v": "IT",
                                                                                    "#t": "string"
                                                                                },
                                                                                {
                                                                                    "#v": "IT",
                                                                                    "#t": "string"
                                                                                }
                                                                            ],
                                                                            "helpTooltip": "",
                                                                            "secondaryText": "",
                                                                            "#t": "GridFieldColumn"
                                                                        },
                                                                        {
                                                                            "_cId": "83fb5e46fc7409a5957fbeef273e64be",
                                                                            "label": "Email",
                                                                            "field": "#\"urn:appian:record-field:v1:2095abdb-6b2b-47ac-9c4e-d6b84a9469a8/ade9be13-826c-48f5-bf4e-5af724574b2a\"",
                                                                            "align": "",
                                                                            "width": "",
                                                                            "data": [
                                                                                {
                                                                                    "#v": "john.smith@example.com",
                                                                                    "#t": "string"
                                                                                },
                                                                                {
                                                                                    "#v": "michael.johnson@example.com",
                                                                                    "#t": "string"
                                                                                },
                                                                                {
                                                                                    "#v": "elizabeth.ward@example.com",
                                                                                    "#t": "string"
                                                                                },
                                                                                {
                                                                                    "#v": "rachel.rater@example.com",
                                                                                    "#t": "string"
                                                                                },
                                                                                {
                                                                                    "#v": "alison.cowley@example.com",
                                                                                    "#t": "string"
                                                                                },
                                                                                {
                                                                                    "#v": "jupiter.munoz@example.com",
                                                                                    "#t": "string"
                                                                                },
                                                                                {
                                                                                    "#v": "tim.caroll@example.com",
                                                                                    "#t": "string"
                                                                                },
                                                                                {
                                                                                    "#v": "abdul.sowayan@example.com",
                                                                                    "#t": "string"
                                                                                },
                                                                                {
                                                                                    "#v": "jane.hill@example.com",
                                                                                    "#t": "string"
                                                                                },
                                                                                {
                                                                                    "#v": "john.rodgers@example.com",
                                                                                    "#t": "string"
                                                                                }
                                                                            ],
                                                                            "helpTooltip": "",
                                                                            "secondaryText": "",
                                                                            "#t": "GridFieldColumn"
                                                                        }
                                                                    ],
                                                                    "totalCount": 100,
                                                                    "identifiers": [
                                                                        {
                                                                            "#v": 1,
                                                                            "#t": "int"
                                                                        },
                                                                        {
                                                                            "#v": 2,
                                                                            "#t": "int"
                                                                        },
                                                                        {
                                                                            "#v": 3,
                                                                            "#t": "int"
                                                                        },
                                                                        {
                                                                            "#v": 4,
                                                                            "#t": "int"
                                                                        },
                                                                        {
                                                                            "#v": 5,
                                                                            "#t": "int"
                                                                        },
                                                                        {
                                                                            "#v": 6,
                                                                            "#t": "int"
                                                                        },
                                                                        {
                                                                            "#v": 7,
                                                                            "#t": "int"
                                                                        },
                                                                        {
                                                                            "#v": 8,
                                                                            "#t": "int"
                                                                        },
                                                                        {
                                                                            "#v": 9,
                                                                            "#t": "int"
                                                                        },
                                                                        {
                                                                            "#v": 10,
                                                                            "#t": "int"
                                                                        }
                                                                    ],
                                                                    "emptyGridMessage": "No items available",
                                                                    "numRowsToDisplay": 10,
                                                                    "pagingText": "**1 - 10** of 100",
                                                                    "firstPageLabel": "First page",
                                                                    "prevPageLabel": "Previous page",
                                                                    "nextPageLabel": "Next page",
                                                                    "lastPageLabel": "Last page",
                                                                    "spacing": "STANDARD",
                                                                    "borderStyle": "STANDARD",
                                                                    "rowStyle": "ZEBRA",
                                                                    "selectionStyle": "CHECKBOX",
                                                                    "height": "",
                                                                    "showJumpControls": true,
                                                                    "disabledIdentifiers": [],
                                                                    "pagingAccessibilityText": "Items 1 through 10 of 100",
                                                                    "#t": "PagingGridLayout"
                                                                }
                                                            ],
                                                            "padding": "NONE",
                                                            "topLevelBackgroundColor": "",
                                                            "#t": "ContentLayout"
                                                        },
                                                        "label": "Employees",
                                                        "labelPosition": "ABOVE",
                                                        "instructions": "",
                                                        "instructionsPosition": "ABOVE",
                                                        "helpTooltip": "",
                                                        "requiredStyle": "",
                                                        "skinName": "",
                                                        "marginBelow": "",
                                                        "accessibilityText": "",
                                                        "marginAbove": "",
                                                        "#t": "FieldLayout"
                                                    }
                                                ],
                                                "align": "",
                                                "width": ""
                                            }
                                        ],
                                        "alignVertical": "",
                                        "layout": "",
                                        "minHeight": "",
                                        "#t": "ColumnArrayLayout"
                                    }
                                ],
                                "divider": "",
                                "errorLabel": "This section contains errors",
                                "expandLabel": "Show section contents",
                                "label": "Employee Information",
                                "validations": [],
                                "labelStyle": "STANDARD",
                                "skinName": "",
                                "marginBelow": "",
                                "accessibilityText": "",
                                "labelSize": "",
                                "labelHeadingTag": "",
                                "labelColor": "",
                                "labelIcon": {
                                    "#v": "",
                                    "#t": "string"
                                },
                                "iconAltText": "",
                                "dividerColor": "",
                                "dividerWeight": "",
                                "marginAbove": "",
                                "#t": "SectionLayout2"
                            }
                        ],
                        "align": "",
                        "width": ""
                    }
                ],
                "alignVertical": "",
                "layout": "",
                "minHeight": "",
                "isTopLevelComponent": true,
                "#t": "ColumnArrayLayout"
            }
        ],
        "padding": "",
        "topLevelBackgroundColor": "",
        "#t": "ContentLayout"
    },
    "context": {
        "type": "stateful",
        "value": "jA0EAwMCVcH7caGVQ90B0qsBFcFTtpZx90hsd6Y7+SZ7NJmZ36NDSWA4gu+dYG+F5QlTM2znYg3F\r\n8vhvC59kOMWgB+8OG76Huz3RGEFb1uuCjhiu+XjBUt3AMy44Cp/AytlBEgRKCm4QvKDSYLeuADYT\r\n5EgPxORLEYxPjyHXwUVnWfmKbs1Jsi2fc7MriEdfu6ctQOJi1a+SBIQQTbqucx/gy8U/BqcWHDH6\r\nQcCTPuIphWGUyocpjUNrdNY=\r\n",
        "#t": "Map"
    },
    "uuid": "fbbdcac0-a70f-4c02-9442-a9901cb1fb11",
    "i18nInfo": {
        "locale": "en-US",
        "timezoneId": "GMT",
        "calendarId": "gregorian",
        "decimalSeparator": ".",
        "groupingSeparator": ",",
        "isRtl": false,
        "isLtr": true
    },
    "timers": {
        "#t": "Dictionary"
    },
    "#t": "UiConfig",
    "shortcuts": [],
    "#u": "<https://an-appian-instance.host.net/suite/tempo/records/type/{recordTypeName}/item/{opaqueId}/view/{dashboard}>; rel=\"x-web-bookmark\"; dt=\"RecordLink\",<https://an-appian-instance.host.net/suite/components/ping.do>; rel=\"x-resume-session\"; dt=\"UiConfig\",<https://an-appian-instance.host.net/suite/tempo/records/item/{_recordRef}/view/{dashboard}>; dt=\"RecordLink\",<https://an-appian-instance.host.net/suite/rest/a/sites/latest/all>; rel=\"x-sites-all\"; dt=\"UiConfig\",<https://an-appian-instance.host.net/suite/sites{/urlStub}/tasks/task/{id}>; rel=\"x-site-task\"; dt=\"UiConfig\",<https://an-appian-instance.host.net/suite/rest/a/applications/latest/legacy/usercard/{%40attributes.%40anyAttribute.recordIdentifier}>; rel=\"x-data-request-usercard\"; dt=\"RecordLink\",<https://an-appian-instance.host.net/suite/sites{/urlStub}/page/{pageUrlStub}/task/{id}>; rel=\"x-site-task-page\"; dt=\"UiConfig\",<https://an-appian-instance.host.net/suite/sites{/siteUrlStub}/page/{pageUrlStub}/record/{opaqueRecordReference}/view/{viewUrlStub}>; rel=\"x-web-bookmark-sites\"; dt=\"RecordLink\",<https://an-appian-instance.host.net/suite/rest/a/applications/latest/legacy/sites{/urlStub}/page{/pageUrlStub}/nav>; rel=\"x-site-page-navattributes\"; dt=\"UiConfig\",<https://an-appian-instance.host.net/suite/rest/a/user/latest/user/{%40attributes.%40anyAttribute.user}/about>; rel=\"x-data-request-userinfo\"; dt=\"RecordLink\",<https://an-appian-instance.host.net/suite/rest/a/sites/latest/record/{opaqueRecordReference}/view/{viewUrlStub}>; rel=\"x-data-request-site-record-leftnav\"; dt=\"RecordLink\",<https://an-appian-instance.host.net/suite/rest/a/sites/latest/{siteUrlStub}/page/{pageUrlStub}/record/{opaqueRecordReference}/view/{viewUrlStub}>; rel=\"x-data-request-site-record\"; dt=\"RecordLink\",<https://an-appian-instance.host.net/suite/rest/a/record/latest/{recordTypeUrlStub}/{recordId}/dashboards/{dashboardUrlStub}/transparentid>; rel=\"x-record-ui\"; dt=\"RecordLink\",<https://an-appian-instance.host.net/suite/rest/a/record/latest{/recordTypeUrlStub}{/recordId}/dashboards{/dashboardUrlStub}/headerFeed>; rel=\"x-record-dashboard-feed-header\"; type=\"application/atom+json\"; dt=\"RecordLink\",<https://an-appian-instance.host.net/suite/rest/a/task/latest/{taskId}/attributes>; rel=\"x-task-attributes\"; dt=\"UiConfig\",<https://an-appian-instance.host.net/suite/rest/a/sites/latest/{siteUrlStub}/record/{opaqueRecordReference}/view/{viewUrlStub}/views>; rel=\"x-data-request-site-mobile-record-views\"; dt=\"RecordLink\",<https://an-appian-instance.host.net/suite/internal/webapi/releaselock/{objectUuid}/{uiSourceUuid}>; rel=\"x-data-release-object-lock\"; dt=\"UiConfig\",<https://an-appian-instance.host.net/suite/tempo/records/type/{recordTypeName}/item/{opaqueId}/actions>; rel=\"x-web-bookmark-actions\"; dt=\"RecordLink\",<https://an-appian-instance.host.net/suite/rest/a/applications/latest/legacy/>; rel=\"x-sasa-app\"; dt=\"UiConfig\",<https://an-appian-instance.host.net/suite/sites{/siteUrlStub}/record/{opaqueRecordReference}/view/{viewUrlStub}>; rel=\"x-web-bookmark-sites-nopage\"; dt=\"RecordLink\",<https://an-appian-instance.host.net/suite/rest/a/record/latest{/recordTypeUrlStub}{/recordId}/dashboards{/dashboardUrlStub}>; rel=\"x-record-dashboard-feed\"; type=\"application/atom+json\"; dt=\"RecordLink\",<https://an-appian-instance.host.net/suite/api/feed/tempo?t=e,x,b,f&m=menu-records&s=mt{&_recordRef,dashboard,c}>; rel=\"x-record-news\"; type=\"application/atom+xml\"; dt=\"RecordLink\",<https://an-appian-instance.host.net/suite/rest/a/applications/latest/app{/appName}{/path*}{?params*}>; rel=\"x-sail-application\"; dt=\"UiConfig\",<https://an-appian-instance.host.net/suite/rest/a/sites/latest/{siteUrlStub}/record/{opaqueRecordReference}/view/{viewUrlStub}>; rel=\"x-data-request-site-record-nopage\"; dt=\"RecordLink\",<https://an-appian-instance.host.net/suite/tempo/records/item/{_recordRef}/view/{dashboard}>; rel=\"x-web-bookmark-records\"; dt=\"RecordLink\",<https://an-appian-instance.host.net/suite/rest/a/record/latest/{recordTypeUrlStub}/{recordId}/feed/dashboards/{dashboardUrlStub}/transparentid>; rel=\"x-record-feed\"; dt=\"RecordLink\",<https://an-appian-instance.host.net/suite/api/feed/tempo?t=e,x,b,f&m=menu-records&s=mt{&_recordRef,dashboard,c}>; rel=\"x-data-request-record-news\"; dt=\"RecordLink\",<https://an-appian-instance.host.net/suite/rest/a/sites/latest/{siteUrlStub}/recordType/{recordTypeUrlStub}/record/{opaqueRecordId}/view/{viewUrlStub}>; rel=\"x-data-request-site-record-by-id-nopage\"; dt=\"RecordLink\",<https://an-appian-instance.host.net/suite/rest/a/rpacomponent/latest/editor>; rel=\"x-rpa-expression-editor\"; dt=\"UiConfig\",<https://an-appian-instance.host.net/suite/rest/a/record/latest{/_recordRef}/dashboards{/dashboard}/headerFeed>; rel=\"x-record-dashboard-header\"; type=\"application/atom+xml\"; dt=\"RecordLink\",<https://an-appian-instance.host.net/suite/rest/a/record/latest{/_recordRef}/dashboards{/dashboard}>; rel=\"x-record-dashboard\"; type=\"application/atom+xml\"; dt=\"RecordLink\",<https://an-appian-instance.host.net/suite/cors>; rel=\"x-cors\"; dt=\"UiConfig\",<https://an-appian-instance.host.net/suite/rest/a/content/latest/{opaqueContentId}/thumbnail/o;maxWidth={maxWidth};maxHeight={maxHeight}>; rel=\"x-thumbnail\"; dt=\"RecordLink\",<https://an-appian-instance.host.net/suite/rest/a/interfacedesigner/latest/evaluateComponentTemplate{/templateId}>; rel=\"x-ifcdesigner-evaluatecomponenttemplate\"; dt=\"UiConfig\",<https://an-appian-instance.host.net/suite/rest/a/sites/latest/{siteUrlStub}/pages/{pageUrlStub}/report>; rel=\"x-sites-report\"; dt=\"UiConfig\",<https://an-appian-instance.host.net/suite/rest/a/applications/latest/legacy/sites{/urlStub}/nav>; rel=\"x-site-navattributes\"; dt=\"UiConfig\",<https://an-appian-instance.host.net/suite/sites>; rel=\"x-site-main\"; dt=\"UiConfig\",<https://an-appian-instance.host.net/suite/rest/a/sites/latest/{siteUrlStub}/page/{pageUrlStub}/recordType/{recordTypeUrlStub}/record/{opaqueRecordId}/view/{viewUrlStub}>; rel=\"x-data-request-site-record-by-id\"; dt=\"RecordLink\""
}